Making graphs – ECSR
…
Here we have used colour="black" outside the aes to define the colour for all the labels, and check_overlap = TRUE which removes any labels that are on top of each other. It’s still a little bit hard to understand, and maybe we want to focus on just a few of the labels for countries we are interested in. For example

# make a vector of countries you want to have labels for
focus_cnt <- c("United Kingdom", "France", "Argentina")

# add a new column to the plot_data where these countries are
plot_data <- plot_data %>% mutate(focus = CNT %in% focus_cnt)

plot_data

# A tibble: 80 × 5
# Groups:   OECD [2]
   OECD  CNT                  m_read m_maths focus
   <fct> <fct>                 <dbl>   <dbl> <lgl>
 1 No    Albania                359.    368. FALSE
 2 No    United Arab Emirates   420.    434. FALSE
 3 No    Argentina              413.    389. TRUE 
 4 No    Bulgaria               405.    418. FALSE
 5 No    Brazil                 415.    380. FALSE
 6 No    Brunei Darussalam      428.    440. FALSE
 7 No    Dominican Republic     354.    340. FALSE
 8 No    Georgia                374.    390. FALSE
 9 No    Guatemala              377.    346. FALSE
10 No    Hong Kong (China)      504.    545. FALSE
# ℹ 70 more rows
…
